((topmost-intro <0,0>))
((arglist-cont-nonempty <1,0> <1,10>))
((arglist-close <2,0> <2,10>))
((topmost-intro <1,0>))
((arglist-intro <1,0> <1,10>))
((arglist-cont <1,4>))
((arglist-close <3,0> <3,10>))
((topmost-intro <1,0>))
((brace-list-intro <1,0>) (brace-list-entry <1,13>))
((brace-list-close <2,0>))
((topmost-intro <1,0>))
((arglist-cont-nonempty <1,0> <1,12>) (brace-list-entry <1,14>))
((brace-list-close <2,0>))
((topmost-intro <1,0>))
((brace-list-intro <1,0>))
((brace-list-entry <1,4>))
((brace-list-close <3,0>))
((topmost-intro <1,0>))
((arglist-cont-nonempty <1,0> <1,12>) (brace-list-entry <1,14>))
((brace-list-close <2,0>))
((topmost-intro <1,0>))
((brace-list-intro <1,0>))
((brace-entry-open <1,4>))
((brace-list-intro <1,5>) (brace-list-entry <1,12>))
((brace-list-intro <2,4>) (brace-list-close <2,4>))
((brace-list-entry <3,4>))
((arglist-cont-nonempty <1,4> <1,8>) (statement-block-intro <1,4>))
((statement <1,12>))
((arglist-cont-nonempty <3,4> <3,8>) (block-close <3,4>))
((arglist-cont-nonempty <4,4> <4,8>))
((arglist-cont-nonempty <1,8> <1,12>) (brace-list-entry <1,14>))
((brace-entry-open <1,14>))
((brace-list-intro <1,14>))
((brace-list-close <2,14>))
((brace-list-close <9,4>))
